1612_lowpassFilter/T0004ALL.CSV

Model,DPO2024
Firmware Version,1.25

Point Format,Y,
Horizontal Units,S,
Horizontal Scale,0.0002,
Sample Interval,1.6e-08,
Filter Frequency,2e+08,
Record Length,125000,
Gating,0.0% to 100.0%,0.0% to 100.0%
Probe Attenuation,1,1
Vertical Units,V,V
Vertical Offset,0,0
Vertical Scale,0.5,5
Label,,
TIME,CH1,CH2
-1.00000e-04,-0.01375,0.1
-9.99840e-05,-0.01,0.113281
-9.99680e-05,-0.0175,0.113281
-9.99520e-05,-0.0124219,0.113281
-9.99360e-05,-0.0160938,0.125781
-9.99200e-05,-0.0124219,0.1
-9.99040e-05,-0.015,0.1125
-9.98880e-05,-0.0111719,0.1
-9.98720e-05,-0.0149219,0.113281
-9.98560e-05,-0.01125,0.1
-9.98400e-05,-0.0174219,0.125781
-9.98240e-05,-0.0174219,0.113281
-9.98080e-05,-0.0175,0.1
-9.97920e-05,-0.0124219,0.1
-9.97760e-05,-0.0136719,0.1
-9.97600e-05,-0.0161719,0.1
-9.97440e-05,-0.0149219,0.113281
-9.97280e-05,-0.0124219,0.125781
-9.97120e-05,-0.01375,0.1125
-9.96960e-05,-0.0160938,0.1
-9.96800e-05,-0.00984376,0.1
-9.96640e-05,-0.00992189,0.113281
-9.96480e-05,-0.0149219,0.113281
-9.96320e-05,-0.0124219,0.113281
-9.96160e-05,-0.0149219,0.113281
-9.96000e-05,-0.0149219,0.1
-9.95840e-05,-0.0124219,0.113281
-9.95680e-05,-0.0136719,0.113281
-9.95520e-05,-0.0123438,0.0867188
-9.95360e-05,-0.01375,0.1
-9.95200e-05,-0.01125,0.1
-9.95040e-05,-0.0161719,0.111719
-9.94880e-05,-0.0124219,0.1
-9.94720e-05,-0.0136719,0.113281
-9.94560e-05,-0.01,0.1
-9.94400e-05,-0.0135938,0.1125
-9.94240e-05,-0.0136719,0.1
-9.94080e-05,-0.0174219,0.1
-9.93920e-05,-0.0110938,0.1125
-9.93760e-05,-0.00992189,0.1
-9.93600e-05,-0.0136719,0.125781
-9.93440e-05,-0.015,0.113281
-9.93280e-05,-0.0124219,0.125781
-9.93120e-05,-0.0148438,0.1
-9.92960e-05,-0.0135938,0.100781
-9.92800e-05,-0.0149219,0.1
-9.92640e-05,-0.0149219,0.113281
-9.92480e-05,-0.0175,0.1
-9.92320e-05,-0.0136719,0.1
-9.92160e-05,-0.0161719,0.1
-9.92000e-05,-0.0160938,0.113281
-9.91840e-05,-0.015,0.1
-9.91680e-05,-0.0161719,0.113281
-9.91520e-05,-0.0149219,0.1125
-9.91360e-05,-0.01625,0.1
-9.91200e-05,-0.0148438,0.138281
-9.91040e-05,-0.0148438,0.1
-9.90880e-05,-0.0199219,0.1
-9.90720e-05,-0.0125,0.113281
-9.90560e-05,-0.0124219,0.1
-9.90400e-05,-0.00734376,0.1
-9.90240e-05,-0.0149219,0.125781
-9.90080e-05,-0.0148438,0.1
-9.89920e-05,-0.0186719,0.1
-9.89760e-05,-0.0148438,0.1
-9.89600e-05,-0.0136719,0.113281
-9.89440e-05,-0.01625,0.1
-9.89280e-05,-0.01,0.125781
-9.89120e-05,-0.0175,0.1
-9.88960e-05,-0.0135938,0.113281
-9.88800e-05,-0.0174219,0.1
-9.88640e-05,-0.0136719,0.113281
-9.88480e-05,-0.0173438,0.1
-9.88320e-05,-0.01875,0.1
-9.88160e-05,-0.0124219,0.113281
-9.88000e-05,-0.0124219,0.1125
-9.87840e-05,-0.0135938,0.1
-9.87680e-05,-0.0149219,0.1
-9.87520e-05,-0.0160938,0.113281
-9.87360e-05,-0.0124219,0.0882813
-9.87200e-05,-0.0173438,0.113281
-9.87040e-05,-0.01625,0.1
-9.86880e-05,-0.0186719,0.113281
-9.86720e-05,-0.0210938,0.1
-9.86560e-05,-0.0124219,0.1
-9.86400e-05,-0.0186719,0.125781
-9.86240e-05,-0.0136719,0.1125
-9.86080e-05,-0.01625,0.1
-9.85920e-05,-0.0160938,0.125781
-9.85760e-05,-0.01875,0.125781
-9.85600e-05,-0.00859376,0.1
-9.85440e-05,-0.0136719,0.1
-9.85280e-05,-0.0199219,0.1
-9.85120e-05,-0.0136719,0.1
-9.84960e-05,-0.015,0.113281
-9.84800e-05,-0.0174219,0.1
-9.84640e-05,-0.01375,0.0875001
-9.84480e-05,-0.0160938,0.113281
-9.84320e-05,-0.0185938,0.1
-9.84160e-05,-0.0124219,0.113281
-9.84000e-05,-0.01125,0.0875001
-9.83840e-05,-0.0148438,0.1
-9.83680e-05,-0.015,0.1
-9.83520e-05,-0.01375,0.125781
-9.83360e-05,-0.0135938,0.125781
-9.83200e-05,-0.01875,0.113281
-9.83040e-05,-0.0186719,0.113281
-9.82880e-05,-0.0161719,0.125781
-9.82720e-05,-0.0148438,0.125
-9.82560e-05,-0.0149219,0.113281
-9.82400e-05,-0.0161719,0.113281
-9.82240e-05,-0.0124219,0.100781
-9.82080e-05,-0.0124219,0.15
-9.81920e-05,-0.01375,0.1
-9.81760e-05,-0.0149219,0.1
-9.81600e-05,-0.01625,0.1
-9.81440e-05,-0.0175,0.125
-9.81280e-05,-0.0149219,0.125781
-9.81120e-05,-0.0136719,0.0882813
-9.80960e-05,-0.0124219,0.138281
-9.80800e-05,-0.0149219,0.1
-9.80640e-05,-0.0161719,0.125781
-9.80480e-05,-0.0161719,0.1
-9.80320e-05,-0.0149219,0.1125
-9.80160e-05,-0.0149219,0.1
-9.80000e-05,-0.0175,0.1
-9.79840e-05,-0.0149219,0.125
-9.79680e-05,-0.0160938,0.125781
-9.79520e-05,-0.0136719,0.113281
-9.79360e-05,-0.0160938,0.1
-9.79200e-05,-0.0175,0.125781
-9.79040e-05,-0.0175,0.1
-9.78880e-05,-0.0124219,0.125
-9.78720e-05,-0.0124219,0.1
-9.78560e-05,-0.0148438,0.113281
-9.78400e-05,-0.0161719,0.1
-9.78240e-05,-0.0175781,0.1125
-9.78080e-05,-0.01375,0.1
-9.77920e-05,-0.0161719,0.113281
-9.77760e-05,-0.0136719,0.1
-9.77600e-05,-0.0174219,0.1
-9.77440e-05,-0.0173438,0.1
-9.77280e-05,-0.0149219,0.113281
-9.77120e-05,-0.0175,0.113281
-9.76960e-05,-0.0186719,0.113281
-9.76800e-05,-0.00859376,0.0882813
-9.76640e-05,-0.0174219,0.125781
-9.76480e-05,-0.0172656,0.125781
-9.76320e-05,-0.0160938,0.1
-9.76160e-05,-0.0136719,0.1
-9.76000e-05,-0.0161719,0.1
-9.75840e-05,-0.0210938,0.1
-9.75680e-05,-0.0136719,0.1
-9.75520e-05,-0.0111719,0.1
-9.75360e-05,-0.0175,0.1
-9.75200e-05,-0.0148438,0.1
-9.75040e-05,-0.0175,0.1
-9.74880e-05,-0.0124219,0.1125
-9.74720e-05,-0.01625,0.1
-9.74560e-05,-0.0149219,0.1
-9.74400e-05,-0.0174219,0.113281
-9.74240e-05,-0.0124219,0.1125
-9.74080e-05,-0.0174219,0.1
-9.73920e-05,-0.0136719,0.1
-9.73760e-05,-0.0174219,0.1
-9.73600e-05,-0.0136719,0.113281
-9.73440e-05,-0.0160938,0.1
-9.73280e-05,-0.01125,0.1125
-9.73120e-05,-0.0161719,0.113281
-9.72960e-05,-0.0175,0.125
-9.72800e-05,-0.0125,0.1
-9.72640e-05,-0.0111719,0.1125
-9.72480e-05,-0.015,0.125781
-9.72320e-05,-0.0175,0.113281
-9.72160e-05,-0.0135938,0.113281
-9.72000e-05,-0.0111719,0.138281
-9.71840e-05,-0.0149219,0.125
-9.71680e-05,-0.01625,0.125781
-9.71520e-05,-0.0111719,0.1
-9.71360e-05,-0.01125,0.100781
-9.71200e-05,-0.0148438,0.1125
-9.71040e-05,-0.0160938,0.125781
-9.70880e-05,-0.0135938,0.1
-9.70720e-05,-0.0175,0.126563
-9.70560e-05,-0.0148438,0.1
-9.70400e-05,-0.0149219,0.113281
-9.70240e-05,-0.0135938,0.1
-9.70080e-05,-0.015,0.1125
-9.69920e-05,-0.0161719,0.1125
-9.69760e-05,-0.0136719,0.0875001
-9.69600e-05,-0.0148438,0.1
-9.69440e-05,-0.0124219,0.1125
-9.69280e-05,-0.0160938,0.1125
-9.69120e-05,-0.0186719,0.125781
-9.68960e-05,-0.0136719,0.1
-9.68800e-05,-0.0136719,0.15
-9.68640e-05,-0.0136719,0.125
-9.68480e-05,-0.0148438,0.125
-9.68320e-05,-0.0148438,0.1125
-9.68160e-05,-0.0148438,0.125
-9.68000e-05,-0.0136719,0.125781
-9.67840e-05,-0.0149219,0.1
-9.67680e-05,-0.0149219,0.1
-9.67520e-05,-0.01375,0.1
-9.67360e-05,-0.0148438,0.125781
-9.67200e-05,-0.0111719,0.113281
-9.67040e-05,-0.0148438,0.100781
-9.66880e-05,-0.0199219,0.125781
-9.66720e-05,-0.0148438,0.113281
-9.66560e-05,-0.0124219,0.1
-9.66400e-05,-0.0148438,0.125781
-9.66240e-05,-0.0136719,0.1
-9.66080e-05,-0.0161719,0.15
-9.65920e-05,-0.0135938,0.113281
-9.65760e-05,-0.0111719,0.1125
-9.65600e-05,-0.0161719,0.113281
-9.65440e-05,-0.0188281,0.113281
-9.65280e-05,-0.0111719,0.113281
-9.65120e-05,-0.0124219,0.113281
-9.64960e-05,-0.0175,0.113281
-9.64800e-05,-0.0161719,0.1375
-9.64640e-05,-0.0136719,0.1
-9.64480e-05,-0.0111719,0.1
-9.64320e-05,-0.0111719,0.125781
-9.64160e-05,-0.0124219,0.1
-9.64000e-05,-0.0124219,0.125781
-9.63840e-05,-0.00867189,0.113281
-9.63680e-05,-0.0124219,0.1
-9.63520e-05,-0.0148438,0.113281
-9.63360e-05,-0.0160938,0.113281
-9.63200e-05,-0.0148438,0.1
-9.63040e-05,-0.0160156,0.1125
-9.62880e-05,-0.0161719,0.1125
-9.62720e-05,-0.0111719,0.1
-9.62560e-05,-0.0124219,0.138281
-9.62400e-05,-0.00992189,0.1
-9.62240e-05,-0.01625,0.113281
-9.62080e-05,-0.0175,0.113281
-9.61920e-05,-0.0149219,0.0875001
-9.61760e-05,-0.0123438,0.1
-9.61600e-05,-0.00984376,0.1375
-9.61440e-05,-0.0149219,0.125781
-9.61280e-05,-0.0124219,0.1
-9.61120e-05,-0.0160938,0.113281
-9.60960e-05,-0.00992189,0.1125
-9.60800e-05,-0.0135938,0.1
-9.60640e-05,-0.0136719,0.125781
-9.60480e-05,-0.0135938,0.113281
-9.60320e-05,-0.0124219,0.1
-9.60160e-05,-0.0161719,0.1
-9.60000e-05,-0.0160938,0.125781
-9.59840e-05,-0.0149219,0.1125
-9.59680e-05,-0.0124219,0.1
-9.59520e-05,-0.0186719,0.113281
-9.59360e-05,-0.0124219,0.1
-9.59200e-05,-0.01625,0.0875001
-9.59040e-05,-0.0186719,0.125781
-9.58880e-05,-0.0148438,0.113281
-9.58720e-05,-0.0174219,0.1
-9.58560e-05,-0.0136719,0.113281
-9.58400e-05,-0.0136719,0.125781
-9.58240e-05,-0.0111719,0.1
-9.58080e-05,-0.01625,0.113281
-9.57920e-05,-0.0223438,0.125781
-9.57760e-05,-0.0149219,0.1
-9.57600e-05,-0.0148438,0.1
-9.57440e-05,-0.0174219,0.1
-9.57280e-05,-0.0148438,0.113281
-9.57120e-05,-0.0149219,0.0882813
-9.56960e-05,-0.0211719,0.1
-9.56800e-05,-0.0149219,0.1
-9.56640e-05,-0.0136719,0.113281
-9.56480e-05,-0.01875,0.0875001
-9.56320e-05,-0.0174219,0.1375
-9.56160e-05,-0.01125,0.113281
-9.56000e-05,-0.0161719,0.125781
-9.55840e-05,-0.0149219,0.1
-9.55680e-05,-0.01625,0.1
-9.55520e-05,-0.015,0.1125
-9.55360e-05,-0.0135938,0.113281
-9.55200e-05,-0.0124219,0.125781
-9.55040e-05,-0.0136719,0.113281
-9.54880e-05,-0.01625,0.1
-9.54720e-05,-0.00992189,0.1
-9.54560e-05,-0.0135938,0.125781
-9.54400e-05,-0.0124219,0.113281
-9.54240e-05,-0.0149219,0.1375
-9.54080e-05,-0.0148438,0.113281
-9.53920e-05,-0.0124219,0.125781
-9.53760e-05,-0.0161719,0.1125
-9.53600e-05,-0.0161719,0.1125
-9.53440e-05,-0.0161719,0.113281
-9.53280e-05,-0.0161719,0.1125
-9.53120e-05,-0.0111719,0.1
-9.52960e-05,-0.01,0.1
-9.52800e-05,-0.01375,0.1
-9.52640e-05,-0.0161719,0.1
-9.52480e-05,-0.0185938,0.1
-9.52320e-05,-0.0135938,0.125781
-9.52160e-05,-0.0161719,0.125781
-9.52000e-05,-0.0135938,0.1
-9.51840e-05,-0.0124219,0.125781
-9.51680e-05,-0.0148438,0.1
-9.51520e-05,-0.0125,0.1
-9.51360e-05,-0.015,0.113281
-9.51200e-05,-0.0125,0.1
-9.51040e-05,-0.0136719,0.1
-9.50880e-05,-0.0136719,0.113281
-9.50720e-05,-0.0160156,0.0875001
-9.50560e-05,-0.01625,0.113281
-9.50400e-05,-0.0161719,0.1
-9.50240e-05,-0.0135938,0.1
-9.50080e-05,-0.0124219,0.125
-9.49920e-05,-0.0136719,0.1
-9.49760e-05,-0.0175,0.1
-9.49600e-05,-0.0136719,0.113281
-9.49440e-05,-0.0175,0.1
-9.49280e-05,-0.0160938,0.1375
-9.49120e-05,-0.0149219,0.1
-9.48960e-05,-0.00984376,0.113281
-9.48800e-05,-0.0149219,0.0750001
-9.48640e-05,-0.0148438,0.1
-9.48480e-05,-0.0148438,0.1
-9.48320e-05,-0.0124219,0.0875001
-9.48160e-05,-0.0199219,0.125
-9.48000e-05,-0.0211719,0.125781
-9.47840e-05,-0.01875,0.125
-9.47680e-05,-0.0136719,0.0875001
-9.47520e-05,-0.015,0.1
-9.47360e-05,-0.0148438,0.1375
-9.47200e-05,-0.0135938,0.125
-9.47040e-05,-0.0124219,0.125781
-9.46880e-05,-0.0161719,0.113281
-9.46720e-05,-0.0149219,0.1
-9.46560e-05,-0.0111719,0.15
-9.46400e-05,-0.0161719,0.1
-9.46240e-05,-0.0161719,0.1125
-9.46080e-05,-0.0174219,0.113281
-9.45920e-05,-0.0124219,0.1125
-9.45760e-05,-0.0161719,0.1
-9.45600e-05,-0.0135938,0.1
-9.45440e-05,-0.0149219,0.1
-9.45280e-05,-0.01125,0.113281
-9.45120e-05,-0.0123438,0.1
-9.44960e-05,-0.0135938,0.125781
-9.44800e-05,-0.00992189,0.1
-9.44640e-05,-0.0175,0.1
-9.44480e-05,-0.0124219,0.125781
-9.44320e-05,-0.0174219,0.125781
-9.44160e-05,-0.00984376,0.0867188
-9.44000e-05,-0.01375,0.1
-9.43840e-05,-0.0186719,0.125781
-9.43680e-05,-0.00742189,0.125781
-9.43520e-05,-0.0111719,0.1
-9.43360e-05,-0.0149219,0.1
-9.43200e-05,-0.00992189,0.1
-9.43040e-05,-0.00992189,0.125
-9.42880e-05,-0.0124219,0.113281
-9.42720e-05,-0.0173438,0.125781
-9.42560e-05,-0.0111719,0.113281
-9.42400e-05,-0.0149219,0.1
-9.42240e-05,-0.0149219,0.113281
-9.42080e-05,-0.0135938,0.163281
-9.41920e-05,-0.0149219,0.125781
-9.41760e-05,-0.0135938,0.1125
-9.41600e-05,-0.0135938,0.125781
-9.41440e-05,-0.0136719,0.1
-9.41280e-05,-0.0161719,0.1375
-9.41120e-05,-0.0149219,0.1125
-9.40960e-05,-0.00726564,0.1
-9.40800e-05,-0.0149219,0.113281
-9.40640e-05,-0.0148438,0.1
-9.40480e-05,-0.01125,0.1
-9.40320e-05,-0.00867189,0.1
-9.40160e-05,-0.0186719,0.113281
-9.40000e-05,-0.0175,0.1
-9.39840e-05,-0.01125,0.113281
-9.39680e-05,-0.01625,0.125
-9.39520e-05,-0.0124219,0.164063
-9.39360e-05,-0.0125,0.125781
-9.39200e-05,-0.0123438,0.125781
-9.39040e-05,-0.0149219,0.113281
-9.38880e-05,-0.00742189,0.113281
-9.38720e-05,-0.0136719,0.125781
-9.38560e-05,-0.0135938,0.113281
-9.38400e-05,-0.01875,0.1
-9.38240e-05,-0.0123438,0.113281
-9.38080e-05,-0.0175,0.0882813
-9.37920e-05,-0.0175,0.0875001
-9.37760e-05,-0.0149219,0.125
-9.37600e-05,-0.0149219,0.0882813
-9.37440e-05,-0.0136719,0.125781
-9.37280e-05,-0.0125,0.1
-9.37120e-05,-0.0136719,0.1
-9.36960e-05,-0.0135938,0.0875001
-9.36800e-05,-0.00867189,0.125781
-9.36640e-05,-0.0186719,0.113281
-9.36480e-05,-0.01625,0.113281
-9.36320e-05,-0.0186719,0.1125
-9.36160e-05,-0.0136719,0.0875001
-9.36000e-05,-0.0111719,0.113281
-9.35840e-05,-0.0149219,0.125781
-9.35680e-05,-0.0124219,0.0875001
-9.35520e-05,-0.00992189,0.1
-9.35360e-05,-0.0147656,0.1125
-9.35200e-05,-0.0135938,0.113281
-9.35040e-05,-0.01125,0.125781
-9.34880e-05,-0.0161719,0.113281
-9.34720e-05,-0.0124219,0.113281
-9.34560e-05,-0.00859376,0.1
-9.34400e-05,-0.0148438,0.1
-9.34240e-05,-0.01625,0.113281
-9.34080e-05,-0.00875001,0.1
-9.33920e-05,-0.0149219,0.0875001
-9.33760e-05,-0.0124219,0.1125
-9.33600e-05,-0.0149219,0.15
-9.33440e-05,-0.0147656,0.113281
-9.33280e-05,-0.0174219,0.1375
-9.33120e-05,-0.0149219,0.1
-9.32960e-05,-0.0136719,0.1
-9.32800e-05,-0.0147656,0.113281
-9.32640e-05,-0.01875,0.113281
-9.32480e-05,-0.0148438,0.1
-9.32320e-05,-0.0186719,0.1125
-9.32160e-05,-0.0125,0.1
-9.32000e-05,-0.01875,0.1125
-9.31840e-05,-0.0136719,0.125781
-9.31680e-05,-0.0161719,0.125781
-9.31520e-05,-0.01125,0.1
-9.31360e-05,-0.01875,0.100781
-9.31200e-05,-0.01125,0.100781
-9.31040e-05,-0.01125,0.113281
-9.30880e-05,-0.0148438,0.1
-9.30720e-05,-0.0124219,0.1
-9.30560e-05,-0.0125,0.113281
-9.30400e-05,-0.0135938,0.113281
-9.30240e-05,-0.0148438,0.1125
-9.30080e-05,-0.0149219,0.1
-9.29920e-05,-0.0160938,0.113281
-9.29760e-05,-0.0161719,0.1
-9.29600e-05,-0.0186719,0.113281
-9.29440e-05,-0.0148438,0.1
-9.29280e-05,-0.0136719,0.1
-9.29120e-05,-0.01125,0.1
-9.28960e-05,-0.0136719,0.113281
-9.28800e-05,-0.0199219,0.125781
-9.28640e-05,-0.0161719,0.125781
-9.28480e-05,-0.0149219,0.113281
-9.28320e-05,-0.01375,0.113281
-9.28160e-05,-0.0160938,0.1
-9.28000e-05,-0.0148438,0.1
-9.27840e-05,-0.0124219,0.125781
-9.27680e-05,-0.01875,0.113281
-9.27520e-05,-0.0136719,0.1
-9.27360e-05,-0.0161719,0.1
-9.27200e-05,-0.0172656,0.125
-9.27040e-05,-0.0210938,0.1
-9.26880e-05,-0.0174219,0.113281
-9.26720e-05,-0.0148438,0.113281
-9.26560e-05,-0.0148438,0.1
-9.26400e-05,-0.01625,0.113281
-9.26240e-05,-0.0149219,0.125781
-9.26080e-05,-0.0174219,0.113281
-9.25920e-05,-0.0173438,0.125
-9.25760e-05,-0.0136719,0.1
-9.25600e-05,-0.0186719,0.1
-9.25440e-05,-0.0160938,0.1
-9.25280e-05,-0.0124219,0.113281
-9.25120e-05,-0.01375,0.1
-9.24960e-05,-0.0136719,0.113281
-9.24800e-05,-0.0149219,0.113281
-9.24640e-05,-0.0173438,0.100781
-9.24480e-05,-0.0124219,0.1125
-9.24320e-05,-0.0136719,0.113281
-9.24160e-05,-0.0124219,0.1
-9.24000e-05,-0.0149219,0.113281
-9.23840e-05,-0.0124219,0.0875001
-9.23680e-05,-0.0161719,0.125781
-9.23520e-05,-0.0111719,0.1
-9.23360e-05,-0.0149219,0.1
-9.23200e-05,-0.0160938,0.1
-9.23040e-05,-0.0149219,0.1
-9.22880e-05,-0.0124219,0.113281
-9.22720e-05,-0.0124219,0.113281
-9.22560e-05,-0.01625,0.1
-9.22400e-05,-0.0149219,0.113281
-9.22240e-05,-0.0136719,0.1125
-9.22080e-05,-0.01625,0.125781
-9.21920e-05,-0.0111719,0.1
-9.21760e-05,-0.0174219,0.0882813
-9.21600e-05,-0.0185938,0.1
-9.21440e-05,-0.0136719,0.1125
-9.21280e-05,-0.0211719,0.1
-9.21120e-05,-0.01125,0.113281
-9.20960e-05,-0.01625,0.113281
-9.20800e-05,-0.0125,0.1
-9.20640e-05,-0.0136719,0.1375
-9.20480e-05,-0.0110938,0.1125
-9.20320e-05,-0.0149219,0.0875001
-9.20160e-05,-0.0147656,0.1125
-9.20000e-05,-0.0160938,0.1
-9.19840e-05,-0.0149219,0.1
-9.19680e-05,-0.01125,0.113281
-9.19520e-05,-0.0161719,0.1
-9.19360e-05,-0.0175,0.125781
-9.19200e-05,-0.0148438,0.113281
-9.19040e-05,-0.0160938,0.1375
-9.18880e-05,-0.0148438,0.113281
-9.18720e-05,-0.01125,0.125781
-9.18560e-05,-0.0161719,0.1
-9.18400e-05,-0.01375,0.1
-9.18240e-05,-0.0149219,0.1
-9.18080e-05,-0.0124219,0.125
-9.17920e-05,-0.0125,0.125781
-9.17760e-05,-0.00992189,0.1
-9.17600e-05,-0.0125,0.113281
-9.17440e-05,-0.0125,0.1375
-9.17280e-05,-0.0148438,0.113281
-9.17120e-05,-0.0136719,0.1
-9.16960e-05,-0.01375,0.113281
-9.16800e-05,-0.0160938,0.1
-9.16640e-05,-0.0174219,0.1
-9.16480e-05,-0.00992189,0.113281
-9.16320e-05,-0.0124219,0.1
-9.16160e-05,-0.01375,0.1
-9.16000e-05,-0.0173438,0.113281
-9.15840e-05,-0.0136719,0.1
-9.15680e-05,-0.0198438,0.1
-9.15520e-05,-0.0125,0.1
-9.15360e-05,-0.0111719,0.1
-9.15200e-05,-0.0186719,0.113281
-9.15040e-05,-0.0149219,0.1
-9.14880e-05,-0.0174219,0.0875001
-9.14720e-05,-0.0161719,0.113281
-9.14560e-05,-0.015,0.1
-9.14400e-05,-0.01875,0.0875001
-9.14240e-05,-0.0185938,0.1
-9.14080e-05,-0.0199219,0.1
-9.13920e-05,-0.0161719,0.113281
-9.13760e-05,-0.0174219,0.1
-9.13600e-05,-0.0211719,0.1375
-9.13440e-05,-0.0160938,0.15
-9.13280e-05,-0.01375,0.113281
-9.13120e-05,-0.0175,0.1
-9.12960e-05,-0.0110938,0.113281
-9.12800e-05,-0.0111719,0.1
-9.12640e-05,-0.0136719,0.1375
-9.12480e-05,-0.0173438,0.113281
-9.12320e-05,-0.01875,0.1
-9.12160e-05,-0.0173438,0.113281
-9.12000e-05,-0.01875,0.1
-9.11840e-05,-0.0149219,0.1375
-9.11680e-05,-0.0148438,0.125781
-9.11520e-05,-0.0136719,0.15
-9.11360e-05,-0.0160938,0.100781
-9.11200e-05,-0.0149219,0.1
-9.11040e-05,-0.0161719,0.113281
-9.10880e-05,-0.0136719,0.1
-9.10720e-05,-0.0186719,0.1
-9.10560e-05,-0.02,0.113281
-9.10400e-05,-0.01875,0.1
-9.10240e-05,-0.0148438,0.1
-9.10080e-05,-0.01625,0.1
-9.09920e-05,-0.0111719,0.1125
-9.09760e-05,-0.0174219,0.0882813
-9.09600e-05,-0.01125,0.113281
-9.09440e-05,-0.0148438,0.1
-9.09280e-05,-0.0199219,0.113281
-9.09120e-05,-0.0174219,0.1
-9.08960e-05,-0.0124219,0.125781
-9.08800e-05,-0.0174219,0.113281
-9.08640e-05,-0.0148438,0.1
-9.08480e-05,-0.0160156,0.1
-9.08320e-05,-0.0161719,0.113281
-9.08160e-05,-0.0160938,0.138281
-9.08000e-05,-0.0185938,0.1
-9.07840e-05,-0.0135938,0.1
-9.07680e-05,-0.0175,0.113281
-9.07520e-05,-0.0135938,0.113281
-9.07360e-05,-0.0136719,0.125
-9.07200e-05,-0.01125,0.1
-9.07040e-05,-0.0160938,0.1
-9.06880e-05,-0.0148438,0.0875001
-9.06720e-05,-0.0136719,0.0875001
-9.06560e-05,-0.0148438,0.1375
-9.06400e-05,-0.0125,0.125
-9.06240e-05,-0.0136719,0.113281
-9.06080e-05,-0.0161719,0.1
-9.05920e-05,-0.0124219,0.1
-9.05760e-05,-0.00992189,0.125781
-9.05600e-05,-0.0136719,0.1
-9.05440e-05,-0.0148438,0.1
-9.05280e-05,-0.0136719,0.1
-9.05120e-05,-0.0124219,0.0875001
-9.04960e-05,-0.0136719,0.0867188
-9.04800e-05,-0.01125,0.1375
-9.04640e-05,-0.0136719,0.1
-9.04480e-05,-0.0136719,0.1
-9.04320e-05,-0.0148438,0.1
-9.04160e-05,-0.0136719,0.113281
-9.04000e-05,-0.01625,0.0882813
-9.03840e-05,-0.0160938,0.125781
-9.03680e-05,-0.0174219,0.113281
-9.03520e-05,-0.00992189,0.0875001
-9.03360e-05,-0.0160938,0.0867188
-9.03200e-05,-0.0175,0.1
-9.03040e-05,-0.01125,0.113281
-9.02880e-05,-0.0148438,0.100781
-9.02720e-05,-0.0136719,0.1
-9.02560e-05,-0.00992189,0.113281
-9.02400e-05,-0.0136719,0.1
-9.02240e-05,-0.0199219,0.125
-9.02080e-05,-0.0111719,0.125
-9.01920e-05,-0.0124219,0.1
-9.01760e-05,-0.0136719,0.1
-9.01600e-05,-0.0149219,0.113281
-9.01440e-05,-0.00867189,0.1
-9.01280e-05,-0.01125,0.1
-9.01120e-05,-0.0148438,0.113281
-9.00960e-05,-0.0160156,0.113281
-9.00800e-05,-0.0135938,0.113281
-9.00640e-05,-0.0174219,0.1125
-9.00480e-05,-0.0124219,0.100781
-9.00320e-05,-0.0125,0.1
-9.00160e-05,-0.00734376,0.113281
-9.00000e-05,-0.0136719,0.1
-8.99840e-05,-0.0174219,0.113281
-8.99680e-05,-0.0149219,0.1125
-8.99520e-05,-0.0111719,0.113281
-8.99360e-05,-0.00992189,0.1
-8.99200e-05,-0.0124219,0.125
-8.99040e-05,-0.0160938,0.138281
-8.98880e-05,-0.0125,0.113281
-8.98720e-05,-0.0199219,0.113281
-8.98560e-05,-0.0124219,0.125781
-8.98400e-05,-0.0136719,0.1
-8.98240e-05,-0.0136719,0.1125
-8.98080e-05,-0.0124219,0.125
-8.97920e-05,-0.01625,0.113281
-8.97760e-05,-0.0149219,0.1
-8.97600e-05,-0.0161719,0.113281
-8.97440e-05,-0.0148438,0.1125
-8.97280e-05,-0.0186719,0.1
-8.97120e-05,-0.0174219,0.125
-8.96960e-05,-0.01,0.1
-8.96800e-05,-0.01875,0.113281
-8.96640e-05,-0.01875,0.100781
-8.96480e-05,-0.0136719,0.1
-8.96320e-05,-0.0161719,0.1
-8.96160e-05,-0.0149219,0.1
-8.96000e-05,-0.0186719,0.113281
