1701_guw/T0001ALL.CSV

Model,DPO2024
Firmware Version,1.25

Point Format,Y,
Horizontal Units,S,
Horizontal Scale,0.0001,
Sample Interval,8e-09,
Filter Frequency,2e+08,
Record Length,125000,
Gating,0.0% to 100.0%,0.0% to 100.0%
Probe Attenuation,10,10
Vertical Units,V,V
Vertical Offset,0,0
Vertical Scale,20,1
Label,,
TIME,CH1,CH2
-1.28000e-04,-0.45,0.0198438
-1.27992e-04,-0.4,0.02
-1.27984e-04,-0.4,0.025
-1.27976e-04,-0.5,0.0151562
-1.27968e-04,-0.4,0.0175
-1.27960e-04,-0.45,0.0175
-1.27952e-04,-0.5,0.0175
-1.27944e-04,-0.45,0.01
-1.27936e-04,-0.45,0.0198438
-1.27928e-04,-0.45,0.0225
-1.27920e-04,-0.35,0.0223437
-1.27912e-04,-0.45,0.015
-1.27904e-04,-0.45,0.0175
-1.27896e-04,-0.45,0.0248438
-1.27888e-04,-0.55,0.0151562
-1.27880e-04,-0.4,0.0175
-1.27872e-04,-0.45,0.0248438
-1.27864e-04,-0.45,0.015
-1.27856e-04,-0.596875,0.0151562
-1.27848e-04,-0.4,0.0175
-1.27840e-04,-0.4,0.0175
-1.27832e-04,-0.4,0.0175
-1.27824e-04,-0.35,0.0198438
-1.27816e-04,-0.5,0.0198438
-1.27808e-04,-0.4,0.0198438
-1.27800e-04,-0.4,0.025
-1.27792e-04,-0.4,0.02
-1.27784e-04,-0.5,0.0153125
-1.27776e-04,-0.4,0.0223437
-1.27768e-04,-0.5,0.015
-1.27760e-04,-0.45,0.02
-1.27752e-04,-0.45,0.0151562
-1.27744e-04,-0.4,0.0251563
-1.27736e-04,-0.4,0.0226562
-1.27728e-04,-0.45,0.0126563
-1.27720e-04,-0.35,0.025
-1.27712e-04,-0.45,0.015
-1.27704e-04,-0.4,0.02
-1.27696e-04,-0.45,0.0151562
-1.27688e-04,-0.45,0.0175
-1.27680e-04,-0.5,0.0175
-1.27672e-04,-0.4,0.0128125
-1.27664e-04,-0.4,0.015
-1.27656e-04,-0.5,0.0225
-1.27648e-04,-0.5,0.0125
-1.27640e-04,-0.35,0.0275
-1.27632e-04,-0.3,0.0198438
-1.27624e-04,-0.4,0.0198438
-1.27616e-04,-0.55,0.0175
-1.27608e-04,-0.5,0.0125
-1.27600e-04,-0.4,0.0126563
-1.27592e-04,-0.5,0.0126563
-1.27584e-04,-0.396875,0.0176563
-1.27576e-04,-0.55,0.0126563
-1.27568e-04,-0.35,0.0151562
-1.27560e-04,-0.45,0.0151562
-1.27552e-04,-0.45,0.0175
-1.27544e-04,-0.45,0.0125
-1.27536e-04,-0.4,0.0125
-1.27528e-04,-0.4,0.0151562
-1.27520e-04,-0.45,0.0126563
-1.27512e-04,-0.4,0.0151562
-1.27504e-04,-0.45,0.0151562
-1.27496e-04,-0.503125,0.025
-1.27488e-04,-0.4,0.0151562
-1.27480e-04,-0.45,0.0075
-1.27472e-04,-0.4,0.0101563
-1.27464e-04,-0.35,0.0223437
-1.27456e-04,-0.5,0.01
-1.27448e-04,-0.45,0.0126563
-1.27440e-04,-0.45,0.0126563
-1.27432e-04,-0.45,0.0151562
-1.27424e-04,-0.4,0.02
-1.27416e-04,-0.4,0.01
-1.27408e-04,-0.5,0.0126563
-1.27400e-04,-0.45,0.005
-1.27392e-04,-0.5,0.015
-1.27384e-04,-0.35,0.0126563
-1.27376e-04,-0.45,0.0151562
-1.27368e-04,-0.45,0.0125
-1.27360e-04,-0.45,0.0075
-1.27352e-04,-0.4,0.0175
-1.27344e-04,-0.4,0.0125
-1.27336e-04,-0.45,0.0075
-1.27328e-04,-0.45,0.0175
-1.27320e-04,-0.45,0.0151562
-1.27312e-04,-0.45,0.00984375
-1.27304e-04,-0.4,0.0175
-1.27296e-04,-0.45,0.01
-1.27288e-04,-0.5,0.015
-1.27280e-04,-0.4,0.0151562
-1.27272e-04,-0.5,0.01
-1.27264e-04,-0.45,0.0075
-1.27256e-04,-0.4,0.0126563
-1.27248e-04,-0.45,0.0151562
-1.27240e-04,-0.4,0.01
-1.27232e-04,-0.35,0.0101563
-1.27224e-04,-0.45,0.0101563
-1.27216e-04,-0.45,0.0125
-1.27208e-04,-0.4,0.00765625
-1.27200e-04,-0.4,0.0126563
-1.27192e-04,-0.5,0.015
-1.27184e-04,-0.45,0.0075
-1.27176e-04,-0.5,0.00984375
-1.27168e-04,-0.4,0.01
-1.27160e-04,-0.45,0.0126563
-1.27152e-04,-0.4,0.0126563
-1.27144e-04,-0.4,0.0126563
-1.27136e-04,-0.4,0.0126563
-1.27128e-04,-0.4,0.0101563
-1.27120e-04,-0.45,0.0125
-1.27112e-04,-0.4,0.0075
-1.27104e-04,-0.5,0.01
-1.27096e-04,-0.396875,0.01
-1.27088e-04,-0.35,0.0176563
-1.27080e-04,-0.45,0.0151562
-1.27072e-04,-0.4,0.0075
-1.27064e-04,-0.5,0.00234375
-1.27056e-04,-0.4,0.0075
-1.27048e-04,-0.4,0.0075
-1.27040e-04,-0.446875,0.0225
-1.27032e-04,-0.45,0.0125
-1.27024e-04,-0.45,0.0176563
-1.27016e-04,-0.4,0.0126563
-1.27008e-04,-0.4,0.0151562
-1.27000e-04,-0.4,0.0075
-1.26992e-04,-0.4,0.0075
-1.26984e-04,-0.5,0.0075
-1.26976e-04,-0.4,0.015
-1.26968e-04,-0.4,0.0198438
-1.26960e-04,-0.45,0.0075
-1.26952e-04,-0.45,0.0126563
-1.26944e-04,-0.45,0.0101563
-1.26936e-04,-0.4,0.0128125
-1.26928e-04,-0.4,0.00765625
-1.26920e-04,-0.4,0.0101563
-1.26912e-04,-0.45,0.01
-1.26904e-04,-0.346875,0.0125
-1.26896e-04,-0.4,0.005
-1.26888e-04,-0.45,0.01
-1.26880e-04,-0.453125,0.005
-1.26872e-04,-0.45,0.005
-1.26864e-04,-0.4,0.0125
-1.26856e-04,-0.346875,0.0198438
-1.26848e-04,-0.45,0.0175
-1.26840e-04,-0.45,0.0075
-1.26832e-04,-0.55,0.01
-1.26824e-04,-0.4,0.0151562
-1.26816e-04,-0.5,0.0176563
-1.26808e-04,-0.35,0.0101563
-1.26800e-04,-0.4,0.0075
-1.26792e-04,-0.5,0.0101563
-1.26784e-04,-0.4,0.01
-1.26776e-04,-0.4,0.0151562
-1.26768e-04,-0.45,0.005
-1.26760e-04,-0.4,0.0151562
-1.26752e-04,-0.45,0.01
-1.26744e-04,-0.5,0.00765625
-1.26736e-04,-0.4,0.0126563
-1.26728e-04,-0.4,0.0075
-1.26720e-04,-0.5,0.0075
-1.26712e-04,-0.45,0.0125
-1.26704e-04,-0.45,0.0101563
-1.26696e-04,-0.45,0.0125
-1.26688e-04,-0.4,0.0176563
-1.26680e-04,-0.4,0.0101563
-1.26672e-04,-0.4,0.0175
-1.26664e-04,-0.4,0.0075
-1.26656e-04,-0.4,0.015
-1.26648e-04,-0.5,0.0025
-1.26640e-04,-0.45,0.005
-1.26632e-04,-0.453125,0.0151562
-1.26624e-04,-0.5,0.015
-1.26616e-04,-0.55,0.0075
-1.26608e-04,-0.45,0.0075
-1.26600e-04,-0.4,0.02
-1.26592e-04,-0.4,0.0151562
-1.26584e-04,-0.4,0.0126563
-1.26576e-04,-0.546875,0.0125
-1.26568e-04,-0.45,0.0125
-1.26560e-04,-0.45,0.0175
-1.26552e-04,-0.45,0.01
-1.26544e-04,-0.5,0.0153125
-1.26536e-04,-0.5,0.0126563
-1.26528e-04,-0.5,0.0126563
-1.26520e-04,-0.35,0.0075
-1.26512e-04,-0.4,0.0075
-1.26504e-04,-0.6,0.0125
-1.26496e-04,-0.4,0.01
-1.26488e-04,-0.346875,0.0126563
-1.26480e-04,-0.5,0.0075
-1.26472e-04,-0.4,0.0125
-1.26464e-04,-0.5,0.0075
-1.26456e-04,-0.45,0.01
-1.26448e-04,-0.4,0.0075
-1.26440e-04,-0.5,0.0101563
-1.26432e-04,-0.35,0.0128125
-1.26424e-04,-0.45,0.01
-1.26416e-04,-0.45,0.005
-1.26408e-04,-0.4,0.01
-1.26400e-04,-0.5,0.01
-1.26392e-04,-0.45,0.0126563
-1.26384e-04,-0.346875,0.015
-1.26376e-04,-0.45,0.01
-1.26368e-04,-0.45,0.0075
-1.26360e-04,-0.5,0.0101563
-1.26352e-04,-0.5,0.015
-1.26344e-04,-0.45,0.015
-1.26336e-04,-0.4,0.0025
-1.26328e-04,-0.5,0.0075
-1.26320e-04,-0.45,0.0223437
-1.26312e-04,-0.5,0.00515625
-1.26304e-04,-0.4,0.0151562
-1.26296e-04,-0.5,0.0125
-1.26288e-04,-0.4,0.0125
-1.26280e-04,-0.45,0.0151562
-1.26272e-04,-0.5,0.0125
-1.26264e-04,-0.45,0.0126563
-1.26256e-04,-0.4,0.00765625
-1.26248e-04,-0.45,0.01
-1.26240e-04,-0.4,0.0175
-1.26232e-04,-0.4,0.0075
-1.26224e-04,-0.4,0.0151562
-1.26216e-04,-0.4,0.0151562
-1.26208e-04,-0.5,0.0126563
-1.26200e-04,-0.4,0.0126563
-1.26192e-04,-0.5,0.0198438
-1.26184e-04,-0.45,0.0125
-1.26176e-04,-0.453125,0.0128125
-1.26168e-04,-0.55,0.0151562
-1.26160e-04,-0.35,0.0151562
-1.26152e-04,-0.4,0.0075
-1.26144e-04,-0.4,0.0153125
-1.26136e-04,-0.4,0.0175
-1.26128e-04,-0.4,0.0175
-1.26120e-04,-0.4,0.0148438
-1.26112e-04,-0.45,0.0176563
-1.26104e-04,-0.5,0.01
-1.26096e-04,-0.446875,0.01
-1.26088e-04,-0.5,0.015
-1.26080e-04,-0.45,0.0101563
-1.26072e-04,-0.4,0.0128125
-1.26064e-04,-0.45,0.0075
-1.26056e-04,-0.45,0.0128125
-1.26048e-04,-0.4,0.0176563
-1.26040e-04,-0.4,0.0151562
-1.26032e-04,-0.4,0.015
-1.26024e-04,-0.4,0.015
-1.26016e-04,-0.4,0.0128125
-1.26008e-04,-0.35,0.0175
-1.26000e-04,-0.4,0.01
-1.25992e-04,-0.4,0.0223437
-1.25984e-04,-0.453125,0.0198438
-1.25976e-04,-0.5,0.0175
-1.25968e-04,-0.4,0.015
-1.25960e-04,-0.45,0.0125
-1.25952e-04,-0.45,0.0198438
-1.25944e-04,-0.4,0.0175
-1.25936e-04,-0.4,0.0175
-1.25928e-04,-0.4,0.0225
-1.25920e-04,-0.4,0.0225
-1.25912e-04,-0.45,0.0198438
-1.25904e-04,-0.4,0.0175
-1.25896e-04,-0.45,0.01
-1.25888e-04,-0.4,0.0151562
-1.25880e-04,-0.4,0.0126563
-1.25872e-04,-0.5,0.0126563
-1.25864e-04,-0.5,0.0248438
-1.25856e-04,-0.4,0.0126563
-1.25848e-04,-0.4,0.0126563
-1.25840e-04,-0.4,0.0175
-1.25832e-04,-0.45625,0.0175
-1.25824e-04,-0.5,0.0151562
-1.25816e-04,-0.4,0.0175
-1.25808e-04,-0.5,0.0176563
-1.25800e-04,-0.45,0.02
-1.25792e-04,-0.4,0.0223437
-1.25784e-04,-0.45,0.0175
-1.25776e-04,-0.35,0.0151562
-1.25768e-04,-0.4,0.025
-1.25760e-04,-0.4,0.0198438
-1.25752e-04,-0.45,0.0175
-1.25744e-04,-0.35,0.0151562
-1.25736e-04,-0.5,0.025
-1.25728e-04,-0.4,0.0248438
-1.25720e-04,-0.4,0.0175
-1.25712e-04,-0.4,0.0225
-1.25704e-04,-0.4,0.0175
-1.25696e-04,-0.4,0.0251563
-1.25688e-04,-0.45,0.0175
-1.25680e-04,-0.4,0.0198438
-1.25672e-04,-0.4,0.0223437
-1.25664e-04,-0.45,0.0151562
-1.25656e-04,-0.5,0.0225
-1.25648e-04,-0.45,0.0225
-1.25640e-04,-0.4,0.0175
-1.25632e-04,-0.45,0.0176563
-1.25624e-04,-0.45,0.02
-1.25616e-04,-0.4,0.02
-1.25608e-04,-0.4,0.0275
-1.25600e-04,-0.5,0.0225
-1.25592e-04,-0.35,0.0248438
-1.25584e-04,-0.4,0.0225
-1.25576e-04,-0.5,0.0175
-1.25568e-04,-0.45,0.0223437
-1.25560e-04,-0.5,0.0251563
-1.25552e-04,-0.5,0.0225
-1.25544e-04,-0.396875,0.0223437
-1.25536e-04,-0.55,0.0198438
-1.25528e-04,-0.4,0.025
-1.25520e-04,-0.35,0.0223437
-1.25512e-04,-0.45,0.0273438
-1.25504e-04,-0.5,0.0198438
-1.25496e-04,-0.503125,0.02
-1.25488e-04,-0.5,0.03
-1.25480e-04,-0.5,0.02
-1.25472e-04,-0.45,0.025
-1.25464e-04,-0.55,0.0223437
-1.25456e-04,-0.45,0.0273438
-1.25448e-04,-0.4,0.035
-1.25440e-04,-0.4,0.0298438
-1.25432e-04,-0.35,0.02
-1.25424e-04,-0.4,0.025
-1.25416e-04,-0.5,0.0348437
-1.25408e-04,-0.45,0.025
-1.25400e-04,-0.45,0.025
-1.25392e-04,-0.5,0.0273438
-1.25384e-04,-0.4,0.0326562
-1.25376e-04,-0.4,0.0275
-1.25368e-04,-0.4,0.0223437
-1.25360e-04,-0.4,0.0301562
-1.25352e-04,-0.45,0.02
-1.25344e-04,-0.4,0.0248438
-1.25336e-04,-0.45,0.0248438
-1.25328e-04,-0.4,0.0298438
-1.25320e-04,-0.396875,0.0223437
-1.25312e-04,-0.4,0.0275
-1.25304e-04,-0.35,0.0323437
-1.25296e-04,-0.4,0.0298438
-1.25288e-04,-0.4,0.03
-1.25280e-04,-0.4,0.0301562
-1.25272e-04,-0.45,0.0275
-1.25264e-04,-0.45,0.0323437
-1.25256e-04,-0.45,0.03
-1.25248e-04,-0.453125,0.0248438
-1.25240e-04,-0.4,0.0276563
-1.25232e-04,-0.4,0.0275
-1.25224e-04,-0.4,0.0275
-1.25216e-04,-0.45,0.03
-1.25208e-04,-0.4,0.0298438
-1.25200e-04,-0.45,0.0275
-1.25192e-04,-0.45,0.0301562
-1.25184e-04,-0.4,0.0376563
-1.25176e-04,-0.4,0.0248438
-1.25168e-04,-0.4,0.0273438
-1.25160e-04,-0.45,0.0348437
-1.25152e-04,-0.4,0.025
-1.25144e-04,-0.5,0.0273438
-1.25136e-04,-0.45,0.0348437
-1.25128e-04,-0.4,0.03
-1.25120e-04,-0.45,0.03
-1.25112e-04,-0.5,0.025
-1.25104e-04,-0.4,0.02
-1.25096e-04,-0.4,0.02
-1.25088e-04,-0.5,0.035
-1.25080e-04,-0.55,0.0273438
-1.25072e-04,-0.35,0.035
-1.25064e-04,-0.45,0.0275
-1.25056e-04,-0.55,0.0223437
-1.25048e-04,-0.45,0.0325
-1.25040e-04,-0.4,0.035
-1.25032e-04,-0.5,0.03
-1.25024e-04,-0.4,0.0325
-1.25016e-04,-0.4,0.045
-1.25008e-04,-0.5,0.0273438
-1.25000e-04,-0.45,0.0275
-1.24992e-04,-0.55,0.03
-1.24984e-04,-0.4,0.035
-1.24976e-04,-0.45,0.0301562
-1.24968e-04,-0.45,0.0248438
-1.24960e-04,-0.5,0.0325
-1.24952e-04,-0.4,0.0375
-1.24944e-04,-0.4,0.035
-1.24936e-04,-0.4,0.03
-1.24928e-04,-0.35,0.0223437
-1.24920e-04,-0.4,0.03
-1.24912e-04,-0.45,0.04
-1.24904e-04,-0.503125,0.0401562
-1.24896e-04,-0.4,0.0375
-1.24888e-04,-0.35,0.0398438
-1.24880e-04,-0.45,0.0276563
-1.24872e-04,-0.45,0.0323437
-1.24864e-04,-0.6,0.04
-1.24856e-04,-0.4,0.04
-1.24848e-04,-0.4,0.0373438
-1.24840e-04,-0.45,0.04
-1.24832e-04,-0.45,0.0425
-1.24824e-04,-0.45,0.0426562
-1.24816e-04,-0.4,0.0325
-1.24808e-04,-0.4,0.03
-1.24800e-04,-0.45,0.035
-1.24792e-04,-0.45,0.0325
-1.24784e-04,-0.503125,0.0451563
-1.24776e-04,-0.45,0.0298438
-1.24768e-04,-0.45,0.04
-1.24760e-04,-0.4,0.035
-1.24752e-04,-0.45,0.0398438
-1.24744e-04,-0.5,0.0325
-1.24736e-04,-0.5,0.0376563
-1.24728e-04,-0.5,0.0323437
-1.24720e-04,-0.45,0.0401562
-1.24712e-04,-0.45,0.0325
-1.24704e-04,-0.4,0.0375
-1.24696e-04,-0.55,0.0348437
-1.24688e-04,-0.5,0.0348437
-1.24680e-04,-0.4,0.0425
-1.24672e-04,-0.4,0.0375
-1.24664e-04,-0.503125,0.0376563
-1.24656e-04,-0.45,0.0298438
-1.24648e-04,-0.45,0.0373438
-1.24640e-04,-0.45,0.0375
-1.24632e-04,-0.45,0.045
-1.24624e-04,-0.45,0.0398438
-1.24616e-04,-0.35,0.0325
-1.24608e-04,-0.35,0.04
-1.24600e-04,-0.3,0.035
-1.24592e-04,-0.5,0.0398438
-1.24584e-04,-0.4,0.0425
-1.24576e-04,-0.45,0.0373438
-1.24568e-04,-0.4,0.04
-1.24560e-04,-0.4,0.04
-1.24552e-04,-0.4,0.0373438
-1.24544e-04,-0.45,0.0375
-1.24536e-04,-0.4,0.0348437
-1.24528e-04,-0.5,0.045
-1.24520e-04,-0.45,0.04
-1.24512e-04,-0.35,0.0401562
-1.24504e-04,-0.4,0.0426562
-1.24496e-04,-0.45,0.045
-1.24488e-04,-0.4,0.0401562
-1.24480e-04,-0.45,0.045
-1.24472e-04,-0.4,0.0375
-1.24464e-04,-0.45,0.0425
-1.24456e-04,-0.35,0.045
-1.24448e-04,-0.4,0.0426562
-1.24440e-04,-0.5,0.045
-1.24432e-04,-0.4,0.0401562
-1.24424e-04,-0.4,0.04
-1.24416e-04,-0.5,0.0376563
-1.24408e-04,-0.4,0.0426562
-1.24400e-04,-0.4,0.045
-1.24392e-04,-0.546875,0.045
-1.24384e-04,-0.4,0.0401562
-1.24376e-04,-0.4,0.0475
-1.24368e-04,-0.6,0.0475
-1.24360e-04,-0.4,0.05
-1.24352e-04,-0.45,0.0401562
-1.24344e-04,-0.45,0.0426562
-1.24336e-04,-0.4,0.045
-1.24328e-04,-0.45,0.0425
-1.24320e-04,-0.45,0.0475
-1.24312e-04,-0.45,0.045
-1.24304e-04,-0.45,0.05
-1.24296e-04,-0.4,0.0475
-1.24288e-04,-0.35,0.05
-1.24280e-04,-0.5,0.0475
-1.24272e-04,-0.45,0.0423437
-1.24264e-04,-0.4,0.0425
-1.24256e-04,-0.503125,0.0375
-1.24248e-04,-0.45,0.0375
-1.24240e-04,-0.4,0.045
-1.24232e-04,-0.4,0.04
-1.24224e-04,-0.546875,0.04
-1.24216e-04,-0.45,0.0426562
-1.24208e-04,-0.5,0.0475
-1.24200e-04,-0.45,0.0398438
-1.24192e-04,-0.4,0.0451563
-1.24184e-04,-0.453125,0.04
-1.24176e-04,-0.5,0.04
-1.24168e-04,-0.45,0.04
-1.24160e-04,-0.45,0.0425
-1.24152e-04,-0.45,0.0426562
-1.24144e-04,-0.35,0.05
-1.24136e-04,-0.45,0.0475
-1.24128e-04,-0.4,0.05
-1.24120e-04,-0.5,0.05
-1.24112e-04,-0.4,0.0426562
-1.24104e-04,-0.45,0.0526563
-1.24096e-04,-0.45,0.0425
-1.24088e-04,-0.4,0.0526563
-1.24080e-04,-0.45,0.0425
-1.24072e-04,-0.45,0.0475
-1.24064e-04,-0.35,0.045
-1.24056e-04,-0.45,0.05
-1.24048e-04,-0.4,0.0373438
-1.24040e-04,-0.35,0.05
-1.24032e-04,-0.45,0.0525
-1.24024e-04,-0.5,0.0475
-1.24016e-04,-0.4,0.0475
-1.24008e-04,-0.4,0.0451563
-1.24000e-04,-0.4,0.0526563
-1.23992e-04,-0.45,0.0375
-1.23984e-04,-0.5,0.0423437
-1.23976e-04,-0.4,0.0525
-1.23968e-04,-0.45,0.045
-1.23960e-04,-0.403125,0.0526563
-1.23952e-04,-0.35,0.0525
-1.23944e-04,-0.403125,0.0451563
-1.23936e-04,-0.45,0.0501562
-1.23928e-04,-0.5,0.045
-1.23920e-04,-0.45,0.0525
-1.23912e-04,-0.45,0.0525
-1.23904e-04,-0.4,0.0551563
-1.23896e-04,-0.4,0.0425
-1.23888e-04,-0.346875,0.05
-1.23880e-04,-0.35,0.0451563
-1.23872e-04,-0.4,0.045
-1.23864e-04,-0.5,0.045
-1.23856e-04,-0.45,0.05
-1.23848e-04,-0.45,0.0526563
-1.23840e-04,-0.5,0.0528125
-1.23832e-04,-0.35,0.0475
-1.23824e-04,-0.45,0.05
-1.23816e-04,-0.4,0.0475
-1.23808e-04,-0.45,0.0475
-1.23800e-04,-0.5,0.0501562
-1.23792e-04,-0.5,0.0425
-1.23784e-04,-0.45,0.0525
-1.23776e-04,-0.45,0.05
-1.23768e-04,-0.4,0.05
-1.23760e-04,-0.5,0.0475
-1.23752e-04,-0.4,0.0425
-1.23744e-04,-0.5,0.035
-1.23736e-04,-0.4,0.0575
-1.23728e-04,-0.35,0.0551563
-1.23720e-04,-0.45,0.0528125
-1.23712e-04,-0.346875,0.0525
-1.23704e-04,-0.45,0.0551563
-1.23696e-04,-0.4,0.0475
-1.23688e-04,-0.45,0.0475
-1.23680e-04,-0.4,0.055
-1.23672e-04,-0.35,0.0475
-1.23664e-04,-0.4,0.0475
-1.23656e-04,-0.4,0.0576562
-1.23648e-04,-0.45,0.05
-1.23640e-04,-0.4,0.0575
-1.23632e-04,-0.45,0.055
-1.23624e-04,-0.35,0.0501562
-1.23616e-04,-0.5,0.0525
-1.23608e-04,-0.4,0.05
-1.23600e-04,-0.4,0.0575
-1.23592e-04,-0.45,0.0501562
-1.23584e-04,-0.45,0.05
-1.23576e-04,-0.4,0.0475
-1.23568e-04,-0.453125,0.05
-1.23560e-04,-0.4,0.0525
-1.23552e-04,-0.5,0.0475
-1.23544e-04,-0.45,0.0428125
-1.23536e-04,-0.4,0.0575
-1.23528e-04,-0.4,0.0551563
-1.23520e-04,-0.35,0.0551563
-1.23512e-04,-0.45,0.055
-1.23504e-04,-0.45,0.06
-1.23496e-04,-0.45,0.0551563
-1.23488e-04,-0.55,0.0598438
-1.23480e-04,-0.35,0.0525
-1.23472e-04,-0.45,0.0501562
-1.23464e-04,-0.45,0.0526563
-1.23456e-04,-0.4,0.05
-1.23448e-04,-0.4,0.0526563
-1.23440e-04,-0.4,0.05
-1.23432e-04,-0.45,0.0526563
-1.23424e-04,-0.45,0.05
-1.23416e-04,-0.5,0.05
-1.23408e-04,-0.45,0.055
-1.23400e-04,-0.45,0.0598438
-1.23392e-04,-0.5,0.0575
-1.23384e-04,-0.453125,0.06
-1.23376e-04,-0.4,0.0526563
-1.23368e-04,-0.45,0.0575
-1.23360e-04,-0.45,0.0623438
-1.23352e-04,-0.45,0.0623438
-1.23344e-04,-0.4,0.05
-1.23336e-04,-0.45,0.0528125
-1.23328e-04,-0.4,0.0598438
-1.23320e-04,-0.4,0.0551563
-1.23312e-04,-0.4,0.05
-1.23304e-04,-0.4,0.0575
-1.23296e-04,-0.45,0.0525
-1.23288e-04,-0.45,0.05
-1.23280e-04,-0.45,0.055
-1.23272e-04,-0.45,0.0575
-1.23264e-04,-0.5,0.0526563
-1.23256e-04,-0.45,0.0551563
-1.23248e-04,-0.35,0.0575
-1.23240e-04,-0.4,0.0575
-1.23232e-04,-0.4,0.0623438
-1.23224e-04,-0.5,0.045
-1.23216e-04,-0.45,0.055
-1.23208e-04,-0.546875,0.0525
-1.23200e-04,-0.4,0.0525
-1.23192e-04,-0.5,0.0526563
-1.23184e-04,-0.45,0.0551563
-1.23176e-04,-0.4,0.05
-1.23168e-04,-0.45,0.0501562
-1.23160e-04,-0.5,0.05
-1.23152e-04,-0.5,0.05
-1.23144e-04,-0.4,0.05
-1.23136e-04,-0.3,0.0575
-1.23128e-04,-0.4,0.0501562
-1.23120e-04,-0.45,0.0501562
-1.23112e-04,-0.45,0.05
-1.23104e-04,-0.5,0.06
-1.23096e-04,-0.4,0.055
-1.23088e-04,-0.453125,0.0551563
-1.23080e-04,-0.4,0.055
-1.23072e-04,-0.4,0.0575
-1.23064e-04,-0.4,0.0528125
-1.23056e-04,-0.4,0.055
-1.23048e-04,-0.55,0.0525
-1.23040e-04,-0.45,0.055
-1.23032e-04,-0.45,0.0526563
-1.23024e-04,-0.4,0.0575
-1.23016e-04,-0.5,0.0525
-1.23008e-04,-0.45,0.0526563
-1.23000e-04,-0.4,0.0598438
-1.22992e-04,-0.4,0.0525
-1.22984e-04,-0.45,0.0575
-1.22976e-04,-0.45,0.0528125
-1.22968e-04,-0.5,0.0575
-1.22960e-04,-0.45,0.055
-1.22952e-04,-0.45,0.0598438
-1.22944e-04,-0.5,0.06
-1.22936e-04,-0.5,0.055
-1.22928e-04,-0.5,0.055
-1.22920e-04,-0.55,0.055
-1.22912e-04,-0.55,0.06
-1.22904e-04,-0.4,0.045
-1.22896e-04,-0.553125,0.0575
-1.22888e-04,-0.45,0.0623438
-1.22880e-04,-0.45,0.0551563
-1.22872e-04,-0.4,0.0551563
-1.22864e-04,-0.3,0.0575
-1.22856e-04,-0.4,0.055
-1.22848e-04,-0.45,0.0575
-1.22840e-04,-0.45,0.0526563
-1.22832e-04,-0.4,0.0575
-1.22824e-04,-0.4,0.0525
-1.22816e-04,-0.4,0.0501562
-1.22808e-04,-0.5,0.0528125
-1.22800e-04,-0.5,0.0623438
-1.22792e-04,-0.4,0.0528125
-1.22784e-04,-0.4,0.0475
-1.22776e-04,-0.4,0.0528125
-1.22768e-04,-0.45,0.0626562
-1.22760e-04,-0.45,0.0551563
-1.22752e-04,-0.4,0.055
-1.22744e-04,-0.45,0.06
-1.22736e-04,-0.4,0.0475
-1.22728e-04,-0.4,0.0623438
-1.22720e-04,-0.35,0.0526563
-1.22712e-04,-0.4,0.0626562
-1.22704e-04,-0.55,0.045
-1.22696e-04,-0.5,0.055
-1.22688e-04,-0.4,0.0575
-1.22680e-04,-0.453125,0.0625
-1.22672e-04,-0.4,0.06
-1.22664e-04,-0.4,0.05
-1.22656e-04,-0.4,0.0551563
-1.22648e-04,-0.4,0.0525
-1.22640e-04,-0.45,0.0551563
-1.22632e-04,-0.453125,0.0598438
-1.22624e-04,-0.45,0.0526563
-1.22616e-04,-0.45,0.0498437
-1.22608e-04,-0.45,0.0575
-1.22600e-04,-0.4,0.0551563
-1.22592e-04,-0.45,0.0575
-1.22584e-04,-0.35,0.0498437
-1.22576e-04,-0.4,0.0526563
-1.22568e-04,-0.45,0.0575
-1.22560e-04,-0.4,0.0625
-1.22552e-04,-0.45,0.055
-1.22544e-04,-0.453125,0.0526563
-1.22536e-04,-0.4,0.05
-1.22528e-04,-0.4,0.0475
-1.22520e-04,-0.4,0.0526563
-1.22512e-04,-0.4,0.0526563
-1.22504e-04,-0.5,0.0551563
-1.22496e-04,-0.6,0.0625
-1.22488e-04,-0.45,0.0525
-1.22480e-04,-0.45,0.0526563
-1.22472e-04,-0.346875,0.05
-1.22464e-04,-0.4,0.0575
-1.22456e-04,-0.4,0.055
-1.22448e-04,-0.55,0.0525
-1.22440e-04,-0.45,0.0501562
-1.22432e-04,-0.45,0.06
-1.22424e-04,-0.4,0.0551563
-1.22416e-04,-0.45,0.055
-1.22408e-04,-0.5,0.05
-1.22400e-04,-0.5,0.0551563
-1.22392e-04,-0.45,0.0476563
-1.22384e-04,-0.503125,0.045
-1.22376e-04,-0.4,0.0476563
-1.22368e-04,-0.5,0.0551563
-1.22360e-04,-0.45,0.0551563
-1.22352e-04,-0.4,0.045
-1.22344e-04,-0.35,0.0526563
-1.22336e-04,-0.4,0.055
-1.22328e-04,-0.45,0.0551563
-1.22320e-04,-0.4,0.0525
-1.22312e-04,-0.4,0.05
-1.22304e-04,-0.453125,0.055
-1.22296e-04,-0.4,0.0425
-1.22288e-04,-0.5,0.0575
-1.22280e-04,-0.45,0.0623438
-1.22272e-04,-0.5,0.0575
-1.22264e-04,-0.4,0.0551563
-1.22256e-04,-0.4,0.0551563
-1.22248e-04,-0.4,0.0575
-1.22240e-04,-0.4,0.0476563
-1.22232e-04,-0.45,0.05
-1.22224e-04,-0.45,0.0476563
-1.22216e-04,-0.35,0.0526563
-1.22208e-04,-0.4,0.0525
-1.22200e-04,-0.55,0.0525
-1.22192e-04,-0.45,0.0598438
-1.22184e-04,-0.4,0.05
-1.22176e-04,-0.4,0.0476563
-1.22168e-04,-0.45,0.06
-1.22160e-04,-0.5,0.05
-1.22152e-04,-0.4,0.0551563
-1.22144e-04,-0.4,0.0575
-1.22136e-04,-0.4,0.0526563
-1.22128e-04,-0.4,0.0575
-1.22120e-04,-0.35,0.055
-1.22112e-04,-0.4,0.0475
-1.22104e-04,-0.45,0.0598438
-1.22096e-04,-0.4,0.0475
-1.22088e-04,-0.45,0.045
-1.22080e-04,-0.4,0.0526563
-1.22072e-04,-0.4,0.045
